Ecological Analysis and Visualization • ecan
…
sp_dammy <- 
 tibble::tibble("species" = colnames(dune), 
                "dammy_1" = stringr::str_sub(colnames(dune), 1, 1),
                "dammy_6" = stringr::str_sub(colnames(dune), 6, 6))

df <- 
  df %>%
  dplyr::left_join(sp_dammy)
#> Joining with `by = join_by(species)`

df
#> # A tibble: 197 × 10
#>    stand species  abundance    A1 Moisture Management Use      Manure dammy_1
#>    <chr> <chr>        <dbl> <dbl> <ord>    <fct>      <ord>    <ord>  <chr>  
#>  1 1     Achimill         1   2.8 1        SF         Haypastu 4      A      
#>  2 1     Elymrepe         4   2.8 1        SF         Haypastu 4      E      
#>  3 1     Lolipere         7   2.8 1        SF         Haypastu 4      L      
#>  4 1     Poaprat          4   2.8 1        SF         Haypastu 4      P      
#>  5 1     Poatriv          2   2.8 1        SF         Haypastu 4      P      
#>  6 2     Achimill         3   3.5 1        BF         Haypastu 2      A      
#>  7 2     Alopgeni         2   3.5 1        BF         Haypastu 2      A      
#>  8 2     Bellpere         3   3.5 1        BF         Haypastu 2      B      
#>  9 2     Bromhord         4   3.5 1        BF         Haypastu 2      B      
#> 10 2     Elymrepe         4   3.5 1        BF         Haypastu 2      E      
#> # ℹ 187 more rows
#> # ℹ 1 more variable: dammy_6 <chr>
…
#> Scorautu Trifrepe Agrostol Bracruta Cirsarve Sagiproc Anthodor Planlanc 
#>    0.797    0.687    0.396    0.582    0.317    0.067    0.354    0.087 
#> Rumeacet Trifprat Juncbufo Eleopalu Juncarti Ranuflam Vicilath Hyporadi 
#>    0.084    0.143    0.004    0.023    0.210    0.001    0.688    1.000 
#> Chenalbu Comapalu Callcusp Airaprae Salirepe Empenigr 
#>    1.000    0.453    0.080    0.762    0.608    1.000 
#> 
#> $error
#> [1] 0
#> 
#> attr(,"class")
#> [1] "indval"
ind_val(df, group = "Management")
#> Joining with `by = join_by(numeric_Management)`
#> # A tibble: 30 × 4
#>    Management species  ind.val p.value
#>    <fct>      <chr>      <dbl>   <dbl>
#>  1 SF         Elymrepe   0.188   0.697
#>  2 SF         Alopgeni   0.547   0.042
#>  3 SF         Agrostol   0.472   0.059
#>  4 SF         Cirsarve   0.167   1    
#>  5 SF         Sagiproc   0.241   0.574
#>  6 SF         Chenalbu   0.167   1    
#>  7 BF         Achimill   0.386   0.131
#>  8 BF         Lolipere   0.45    0.066
#>  9 BF         Poaprat    0.379   0.181
#> 10 BF         Bellpere   0.362   0.154
#> # ℹ 20 more rows
ind_val(df, group = "Use")
#> Joining with `by = join_by(numeric_Use)`
#> # A tibble: 30 × 4
#>    Use      species  ind.val p.value
#>    <ord>    <chr>      <dbl>   <dbl>
#>  1 Haypastu Elymrepe   0.292   0.305
#>  2 Haypastu Lolipere   0.259   0.827
#>  3 Haypastu Poaprat    0.288   0.826
#>  4 Haypastu Poatriv    0.451   0.113
#>  5 Haypastu Alopgeni   0.359   0.176
#>  6 Haypastu Agrostol   0.269   0.586
#>  7 Haypastu Cirsarve   0.125   1    
#>  8 Haypastu Sagiproc   0.178   0.82 
#>  9 Haypastu Juncbufo   0.118   0.863
#> 10 Haypastu Chenalbu   0.125   1    
#> # ℹ 20 more rows
ind_val(df, group = "Manure")
#> Joining with `by = join_by(numeric_Manure)`
#> # A tibble: 30 × 4
#>    Manure species  ind.val p.value
#>    <ord>  <chr>      <dbl>   <dbl>
#>  1 4      Elymrepe   0.5     0.051
#>  2 4      Lolipere   0.351   0.215
#>  3 4      Poaprat    0.315   0.258
#>  4 4      Bellpere   0.248   0.47 
#>  5 4      Cirsarve   0.333   0.298
#>  6 2      Achimill   0.309   0.276
#>  7 2      Poatriv    0.299   0.428
#>  8 2      Bromhord   0.173   0.712
#>  9 2      Anthodor   0.178   0.76 
#> 10 2      Rumeacet   0.522   0.047
#> # ℹ 20 more rows
…
