Generate vegetation example — gen_example • ecan
…
ly_list    <- c("B1", "B2", "S1", "S2", "K")
st_list    <- LETTERS[1:9]
sp_list    <- letters[1:9]
st_group   <- rep(LETTERS[24:26], 3)
sp_group   <- rep(letters[24:26], 3)
cover_list <- 2^(0:6)
gen_example(n = n, use_layer = TRUE,
            height_max = height_max, ly_list = ly_list, 
            st_list  = st_list,  sp_list  = sp_list,
            st_group = st_group, sp_group = sp_group,
            cover_list = cover_list)
#> Joining with `by = join_by(stand)`
#> Joining with `by = join_by(stand, layer)`
#> Joining with `by = join_by(species)`
#> # A tibble: 217 × 7
#>    stand layer species cover st_group height sp_group
#>    <chr> <chr> <chr>   <dbl> <chr>     <dbl> <chr>   
#>  1 A     B1    c       32    X          19.7 z       
#>  2 A     B1    i        4    X          19.7 z       
#>  3 A     B1    d        3    X          19.7 x       
#>  4 A     B1    f        2    X          19.7 z       
#>  5 A     B1    g        2    X          19.7 x       
#>  6 A     B2    f       64    X          16.3 z       
#>  7 A     B2    e       32    X          16.3 y       
#>  8 A     B2    a        2    X          16.3 x       
#>  9 A     B2    g        2    X          16.3 x       
#> 10 A     B2    c        1.33 X          16.3 z       
#> # ℹ 207 more rows
…
